…
\#\#mutate( \#\#State = Locationabbr, \#\#County = Locationdesc \#\#)
\#\#Not allowing me to change the column names

In 2002, which states were observed at 7 or more locations? What about
in 2010?

``` r
brfss_smart2010 %>% 
  select(year, locationabbr, locationdesc) %>% 
  filter(year == 2002)
```

    ## # A tibble: 785 x 3
    ##     year locationabbr locationdesc               
    ##    <int> <chr>        <chr>                      
    ##  1  2002 AL           AL - Jefferson County      
    ##  2  2002 AL           AL - Jefferson County      
    ##  3  2002 AL           AL - Jefferson County      
    ##  4  2002 AL           AL - Jefferson County      
    ##  5  2002 AL           AL - Jefferson County      
    ##  6  2002 AK           AK - Anchorage Municipality
    ##  7  2002 AK           AK - Anchorage Municipality
    ##  8  2002 AK           AK - Anchorage Municipality
    ##  9  2002 AK           AK - Anchorage Municipality
    ## 10  2002 AK           AK - Anchorage Municipality
    ## # … with 775 more rows
…
